Week 6 - duckdb
…
# A tibble: 4 × 6
  expression      min   median `itr/sec` mem_alloc `gc/sec`
  <bch:expr> <bch:tm> <bch:tm>     <dbl> <bch:byt>    <dbl>
1 db           8.69ms   9.68ms     104.   240.07KB     19.7
2 view        14.13ms  15.21ms      66.1   235.4KB     12.7
3 arrow        9.86ms  10.17ms      97.0    4.16MB     26.9
4 arrow_db    16.27ms  17.01ms      58.5  212.53KB     37.9

Out-of-memory processing

fs::dir_info("~/Scratch/nyc_taxi/")

# A tibble: 139 × 18
   path            type   size permiss…¹ modification_time   user  group devic…²
   <fs::path>      <fct> <fs:> <fs::per> <dttm>              <chr> <chr>   <dbl>
 1 …axi/old_schema dire…   832 rwxr-xr-x 2022-10-04 11:06:24 rund… staff  1.68e7
 2 …011-01.parquet file   159M rw-r--r-- 2022-06-29 23:16:21 rund… staff  1.68e7
 3 …011-02.parquet file   168M rw-r--r-- 2022-06-29 23:16:21 rund… staff  1.68e7
 4 …011-03.parquet file   191M rw-r--r-- 2022-06-29 23:16:21 rund… staff  1.68e7
 5 …011-04.parquet file   176M rw-r--r-- 2022-06-29 23:16:21 rund… staff  1.68e7
 6 …011-05.parquet file   184M rw-r--r-- 2022-06-29 23:16:21 rund… staff  1.68e7
 7 …011-06.parquet file   180M rw-r--r-- 2022-06-29 23:16:21 rund… staff  1.68e7
 8 …011-07.parquet file   176M rw-r--r-- 2022-06-29 23:16:22 rund… staff  1.68e7
 9 …011-08.parquet file   159M rw-r--r-- 2022-06-29 23:16:21 rund… staff  1.68e7
10 …011-09.parquet file   175M rw-r--r-- 2022-06-29 23:16:21 rund… staff  1.68e7
# … with 129 more rows, 10 more variables: hard_links <dbl>,
#   special_device_id <dbl>, inode <dbl>, block_size <dbl>, blocks <dbl>,
#   flags <int>, generation <dbl>, access_time <dttm>, change_time <dttm>,
#   birth_time <dttm>, and abbreviated variable names ¹​permissions, ²​device_id
…
